Práctica 2 21-03-19/set de señales/pruebas def/Ej_1a/ALL0001/F0001FFT.CSV

Record Length,1.024000e+03,,          0.00000,   4.63090,
Sample Interval,1.233033e+01,,         12.33033,   1.83090,
Trigger Point,-0.000000000000e+00,,         24.66067, -60.96910,
,,,         36.99100, -57.36910,
,,,         49.32134, -60.96910,
,,,         61.65167, -60.96910,
Source,FFT,,         73.98201, -60.96910,
Vertical Units,dB,,         86.31234, -60.96910,
Vertical Scale,1.000000e+01,,         98.64268, -60.96910,
Vertical Offset,0.000000e+00,,        110.97301, -60.96910,
Horizontal Units,Hz,,        123.30335, -60.96910,
Horizontal Scale,1.262626e+03,,        135.63368, -60.96910,
Pt Fmt,Y,,        147.96402, -60.96910,
Yzero,-2.096910e+01,,        160.29435, -60.96910,
Probe Atten,1.000000e+00,,        172.62468, -60.96910,
Model Number,TBS1052B-EDU,,        184.95502, -60.96910,
Serial Number,C015250,,        197.28535, -60.96910,
Firmware Version,FV:v4.0,,        209.61569, -60.96910,
,,,221.94602, -60.96910,
,,,234.27635, -60.96910,
,,,246.60668, -60.96910,
,,,258.93701, -60.96910,
,,,271.26734, -60.96910,
,,,283.59767, -60.96910,
,,,295.92800, -60.96910,
,,,308.25833, -59.76910,
,,,320.58866, -60.96910,
,,,332.91899, -56.96910,
,,,345.24932, -55.76910,
,,,357.57965, -60.96910,
,,,369.90998, -56.96910,
,,,382.24031, -49.76910,
,,,394.57064, -43.36910,
,,,406.90097, -32.16910,
,,,419.23130,  -7.36910,
,,,431.56163,   1.03090,
,,,443.89196,  -2.56910,
,,,456.22229, -26.56910,
,,,468.55262, -40.16910,
,,,480.88295, -46.16910,
,,,493.21328, -55.76910,
,,,505.54361, -60.96910,
,,,517.87394, -60.96910,
,,,530.20427, -60.96910,
,,,542.53460, -60.96910,
,,,554.86493, -60.96910,
,,,567.19526, -60.96910,
,,,579.52559, -60.96910,
,,,591.85592, -60.96910,
,,,604.18625, -60.96910,
,,,616.51658, -59.76910,
,,,628.84691, -60.96910,
,,,641.17724, -60.96910,
,,,653.50757, -60.96910,
,,,665.83790, -60.96910,
,,,678.16823, -60.96910,
,,,690.49856, -60.96910,
,,,702.82889, -60.96910,
,,,715.15922, -56.96910,
,,,727.48955, -59.76910,
,,,739.81988, -59.76910,
,,,752.15021, -59.76910,
,,,764.48054, -60.96910,
,,,776.81087, -60.96910,
,,,789.14120, -60.96910,
,,,801.47153, -60.96910,
,,,813.80186, -60.96910,
,,,826.13219, -60.96910,
,,,838.46252, -60.96910,
,,,850.79285, -60.96910,
,,,863.12318, -56.96910,
,,,875.45351, -59.76910,
,,,887.78384, -60.96910,
,,,900.11417, -60.96910,
,,,912.44450, -60.96910,
,,,924.77483, -60.96910,
,,,937.10516, -59.76910,
,,,949.43549, -60.96910,
,,,961.76582, -60.96910,
,,,974.09615, -60.96910,
,,,986.42648, -60.96910,
,,,998.75681, -60.96910,
,,,1011.08714, -60.96910,
,,,1023.41747, -60.96910,
,,,1035.74780, -60.96910,
,,,1048.07813, -60.96910,
,,,1060.40846, -60.96910,
,,,1072.73879, -60.96910,
,,,1085.06912, -60.96910,
,,,1097.39945, -60.96910,
,,,1109.72978, -60.96910,
,,,1122.06011, -60.96910,
,,,1134.39044, -60.96910,
,,,1146.72077, -60.96910,
,,,1159.05110, -60.96910,
,,,1171.38143, -60.96910,
,,,1183.71176, -60.96910,
,,,1196.04209, -60.96910,
,,,1208.37242, -60.96910,
,,,1220.70275, -60.96910,
,,,1233.03308, -60.96910,
,,,1245.36341, -60.96910,
,,,1257.69374, -60.96910,
,,,1270.02407, -59.76910,
,,,1282.35440, -53.76910,
,,,1294.68473, -48.96910,
,,,1307.01506, -48.96910,
,,,1319.34539, -57.36910,
,,,1331.67572, -60.96910,
,,,1344.00605, -60.96910,
,,,1356.33638, -60.96910,
,,,1368.66671, -59.76910,
,,,1380.99704, -60.96910,
,,,1393.32737, -60.96910,
,,,1405.65770, -60.96910,
,,,1417.98803, -59.76910,
,,,1430.31836, -59.76910,
,,,1442.64869, -60.96910,
,,,1454.97902, -60.96910,
,,,1467.30935, -60.96910,
,,,1479.63968, -60.96910,
,,,1491.97001, -60.96910,
,,,1504.30034, -60.96910,
,,,1516.63067, -60.96910,
,,,1528.96100, -59.76910,
,,,1541.29133, -60.96910,
,,,1553.62166, -60.96910,
,,,1565.95199, -60.96910,
,,,1578.28232, -60.96910,
,,,1590.61265, -60.96910,
,,,1602.94298, -59.76910,
,,,1615.27331, -60.96910,
,,,1627.60364, -60.96910,
,,,1639.93397, -59.76910,
,,,1652.26430, -60.96910,
,,,1664.59463, -60.96910,
,,,1676.92496, -60.96910,
,,,1689.25529, -60.96910,
,,,1701.58562, -60.96910,
,,,1713.91595, -60.96910,
,,,1726.24628, -59.76910,
,,,1738.57661, -60.96910,
,,,1750.90694, -60.96910,
,,,1763.23727, -60.96910,
,,,1775.56760, -60.96910,
,,,1787.89793, -60.96910,
,,,1800.22826, -60.96910,
,,,1812.55859, -60.96910,
,,,1824.88892, -60.96910,
,,,1837.21925, -59.76910,
,,,1849.54958, -60.96910,
,,,1861.87991, -57.76910,
,,,1874.21024, -60.96910,
,,,1886.54057, -59.76910,
,,,1898.87090, -60.96910,
,,,1911.20123, -60.96910,
,,,1923.53156, -59.76910,
,,,1935.86189, -60.96910,
,,,1948.19222, -60.96910,
,,,1960.52255, -59.76910,
,,,1972.85288, -59.76910,
,,,1985.18321, -60.96910,
,,,1997.51354, -60.96910,
,,,2009.84387, -60.96910,
,,,2022.17420, -60.96910,
,,,2034.50453, -60.96910,
,,,2046.83486, -60.96910,
,,,2059.16519, -60.96910,
,,,2071.49552, -56.96910,
,,,2083.82585, -59.76910,
,,,2096.15618, -60.96910,
,,,2108.48651, -60.96910,
,,,2120.81684, -59.76910,
,,,2133.14717, -60.96910,
,,,2145.47750, -60.96910,
,,,2157.80783, -57.36910,
,,,2170.13816, -56.96910,
,,,2182.46849, -60.96910,
,,,2194.79882, -60.96910,
,,,2207.12915, -60.96910,
,,,2219.45948, -60.96910,
,,,2231.78981, -59.76910,
,,,2244.12014, -60.96910,
,,,2256.45047, -60.96910,
,,,2268.78080, -60.96910,
,,,2281.11113, -60.96910,
,,,2293.44146, -60.96910,
,,,2305.77179, -60.96910,
,,,2318.10212, -60.96910,
,,,2330.43245, -60.96910,
,,,2342.76278, -60.96910,
,,,2355.09311, -60.96910,
,,,2367.42344, -60.96910,
,,,2379.75377, -60.96910,
,,,2392.08410, -60.96910,
,,,2404.41443, -60.96910,
,,,2416.74476, -60.96910,
,,,2429.07509, -60.96910,
,,,2441.40542, -60.96910,
,,,2453.73575, -60.96910,
,,,2466.06608, -60.96910,
,,,2478.39641, -60.96910,
,,,2490.72674, -59.76910,
,,,2503.05707, -55.76910,
,,,2515.38740, -55.76910,
,,,2527.71773, -59.76910,
,,,2540.04806, -60.96910,
,,,2552.37839, -60.96910,
,,,2564.70872, -60.96910,
,,,2577.03905, -60.96910,
,,,2589.36938, -60.96910,
,,,2601.69971, -54.96910,
,,,2614.03004, -56.96910,
,,,2626.36037, -60.96910,
,,,2638.69070, -60.96910,
,,,2651.02103, -60.96910,
,,,2663.35136, -60.96910,
,,,2675.68169, -60.96910,
,,,2688.01202, -59.76910,
,,,2700.34235, -60.96910,
,,,2712.67268, -60.96910,
,,,2725.00301, -60.96910,
,,,2737.33334, -60.96910,
,,,2749.66367, -60.96910,
,,,2761.99400, -60.96910,
,,,2774.32433, -60.96910,
,,,2786.65466, -60.96910,
,,,2798.98499, -60.96910,
,,,2811.31532, -60.96910,
,,,2823.64565, -60.96910,
,,,2835.97598, -60.96910,
,,,2848.30631, -59.76910,
,,,2860.63664, -60.96910,
,,,2872.96697, -60.96910,
,,,2885.29730, -60.96910,
,,,2897.62763, -60.96910,
,,,2909.95796, -60.96910,
,,,2922.28829, -59.76910,
,,,2934.61862, -60.96910,
,,,2946.94895, -60.96910,
,,,2959.27928, -60.96910,
,,,2971.60961, -60.96910,
,,,2983.93994, -60.96910,
,,,2996.27027, -59.76910,
,,,3008.60060, -60.96910,
,,,3020.93093, -59.76910,
,,,3033.26126, -54.56910,
,,,3045.59159, -56.96910,
,,,3057.92192, -60.96910,
,,,3070.25225, -60.96910,
,,,3082.58258, -60.96910,
,,,3094.91291, -60.96910,
,,,3107.24324, -60.96910,
,,,3119.57357, -60.96910,
,,,3131.90390, -60.96910,
,,,3144.23423, -60.96910,
,,,3156.56456, -60.96910,
,,,3168.89489, -60.96910,
,,,3181.22522, -60.96910,
,,,3193.55555, -60.96910,
,,,3205.88588, -60.96910,
,,,3218.21621, -60.96910,
,,,3230.54654, -60.96910,
,,,3242.87687, -60.96910,
,,,3255.20720, -60.96910,
,,,3267.53753, -60.96910,
,,,3279.86786, -60.96910,
,,,3292.19819, -60.96910,
,,,3304.52852, -60.96910,
,,,3316.85885, -60.96910,
,,,3329.18918, -60.96910,
,,,3341.51951, -59.76910,
,,,3353.84984, -60.96910,
,,,3366.18017, -60.96910,
,,,3378.51050, -57.76910,
,,,3390.84083, -60.96910,
,,,3403.17116, -60.96910,
,,,3415.50149, -60.96910,
,,,3427.83182, -60.96910,
,,,3440.16215, -60.96910,
,,,3452.49248, -60.96910,
,,,3464.82281, -60.96910,
,,,3477.15314, -60.96910,
,,,3489.48347, -60.96910,
,,,3501.81380, -60.96910,
,,,3514.14413, -60.96910,
,,,3526.47446, -60.96910,
,,,3538.80479, -60.96910,
,,,3551.13512, -60.96910,
,,,3563.46545, -60.96910,
,,,3575.79578, -60.96910,
,,,3588.12611, -60.96910,
,,,3600.45644, -60.96910,
,,,3612.78677, -60.96910,
,,,3625.11710, -60.96910,
,,,3637.44743, -60.96910,
,,,3649.77776, -60.96910,
,,,3662.10809, -60.96910,
,,,3674.43842, -60.96910,
,,,3686.76875, -60.96910,
,,,3699.09908, -60.96910,
,,,3711.42941, -57.76910,
,,,3723.75974, -60.96910,
,,,3736.09007, -60.96910,
,,,3748.42040, -60.96910,
,,,3760.75073, -60.96910,
,,,3773.08106, -60.96910,
,,,3785.41139, -60.96910,
,,,3797.74172, -60.96910,
,,,3810.07205, -60.96910,
,,,3822.40238, -60.96910,
,,,3834.73271, -60.96910,
,,,3847.06304, -60.96910,
,,,3859.39337, -60.96910,
,,,3871.72370, -60.96910,
,,,3884.05403, -59.76910,
,,,3896.38436, -56.96910,
,,,3908.71469, -56.96910,
,,,3921.04502, -60.96910,
,,,3933.37535, -60.96910,
,,,3945.70568, -60.96910,
,,,3958.03601, -60.96910,
,,,3970.36634, -60.96910,
,,,3982.69667, -57.76910,
,,,3995.02700, -57.76910,
,,,4007.35733, -60.96910,
,,,4019.68766, -59.76910,
,,,4032.01799, -60.96910,
,,,4044.34832, -59.76910,
,,,4056.67865, -60.96910,
,,,4069.00898, -60.96910,
,,,4081.33931, -60.96910,
,,,4093.66964, -60.96910,
,,,4105.99997, -60.96910,
,,,4118.33030, -55.76910,
,,,4130.66063, -57.76910,
,,,4142.99096, -60.96910,
,,,4155.32129, -60.96910,
,,,4167.65162, -57.76910,
,,,4179.98195, -59.76910,
,,,4192.31228, -60.96910,
,,,4204.64261, -60.96910,
,,,4216.97294, -60.96910,
,,,4229.30327, -59.76910,
,,,4241.63360, -60.96910,
,,,4253.96393, -60.96910,
,,,4266.29426, -60.96910,
,,,4278.62459, -60.96910,
,,,4290.95492, -60.96910,
,,,4303.28525, -60.96910,
,,,4315.61558, -60.96910,
,,,4327.94591, -57.76910,
,,,4340.27624, -60.96910,
,,,4352.60657, -59.76910,
,,,4364.93690, -60.96910,
,,,4377.26723, -60.96910,
,,,4389.59756, -60.96910,
,,,4401.92789, -60.96910,
,,,4414.25822, -60.96910,
,,,4426.58855, -56.96910,
,,,4438.91888, -60.96910,
,,,4451.24921, -60.96910,
,,,4463.57954, -60.96910,
,,,4475.90987, -60.96910,
,,,4488.24020, -60.96910,
,,,4500.57053, -60.96910,
,,,4512.90086, -59.76910,
,,,4525.23119, -60.96910,
,,,4537.56152, -60.96910,
,,,4549.89185, -60.96910,
,,,4562.22218, -60.96910,
,,,4574.55251, -59.76910,
,,,4586.88284, -60.96910,
,,,4599.21317, -60.96910,
,,,4611.54350, -60.96910,
,,,4623.87383, -60.96910,
,,,4636.20416, -60.96910,
,,,4648.53449, -60.96910,
,,,4660.86482, -60.96910,
,,,4673.19515, -60.96910,
,,,4685.52548, -60.96910,
,,,4697.85581, -60.96910,
,,,4710.18614, -60.96910,
,,,4722.51647, -60.96910,
,,,4734.84680, -52.96910,
,,,4747.17713, -52.96910,
,,,4759.50746, -60.96910,
,,,4771.83779, -59.76910,
,,,4784.16812, -60.96910,
,,,4796.49845, -56.96910,
,,,4808.82878, -59.76910,
,,,4821.15911, -60.96910,
,,,4833.48944, -60.96910,
,,,4845.81977, -60.96910,
,,,4858.15010, -60.96910,
,,,4870.48043, -60.96910,
,,,4882.81076, -60.96910,
,,,4895.14109, -60.96910,
,,,4907.47142, -59.76910,
,,,4919.80175, -60.96910,
,,,4932.13208, -60.96910,
,,,4944.46241, -60.96910,
,,,4956.79274, -60.96910,
,,,4969.12307, -60.96910,
,,,4981.45340, -60.96910,
,,,4993.78373, -60.96910,
,,,5006.11406, -59.76910,
,,,5018.44439, -60.96910,
,,,5030.77472, -60.96910,
,,,5043.10505, -57.36910,
,,,5055.43538, -56.96910,
,,,5067.76571, -60.96910,
,,,5080.09604, -60.96910,
,,,5092.42637, -60.96910,
,,,5104.75670, -59.76910,
,,,5117.08703, -57.76910,
,,,5129.41736, -60.96910,
,,,5141.74769, -60.96910,
,,,5154.07802, -60.96910,
,,,5166.40835, -59.76910,
,,,5178.73868, -60.96910,
,,,5191.06901, -59.76910,
,,,5203.39934, -60.96910,
,,,5215.72967, -60.96910,
,,,5228.06000, -60.96910,
,,,5240.39033, -60.96910,
,,,5252.72066, -60.96910,
,,,5265.05099, -60.96910,
,,,5277.38132, -60.96910,
,,,5289.71165, -57.36910,
,,,5302.04198, -54.96910,
,,,5314.37231, -60.96910,
,,,5326.70264, -60.96910,
,,,5339.03297, -59.76910,
,,,5351.36330, -60.96910,
,,,5363.69363, -60.96910,
,,,5376.02396, -60.96910,
,,,5388.35429, -60.96910,
,,,5400.68462, -60.96910,
,,,5413.01495, -60.96910,
,,,5425.34528, -59.76910,
,,,5437.67561, -60.96910,
,,,5450.00594, -60.96910,
,,,5462.33627, -60.96910,
,,,5474.66660, -60.96910,
,,,5486.99693, -60.96910,
,,,5499.32726, -60.96910,
,,,5511.65759, -60.96910,
,,,5523.98792, -60.96910,
,,,5536.31825, -60.96910,
,,,5548.64858, -57.76910,
,,,5560.97891, -57.76910,
,,,5573.30924, -60.96910,
,,,5585.63957, -60.96910,
,,,5597.96990, -59.76910,
,,,5610.30023, -52.96910,
,,,5622.63056, -60.96910,
,,,5634.96089, -52.96910,
,,,5647.29122, -52.96910,
,,,5659.62155, -60.96910,
,,,5671.95188, -60.96910,
,,,5684.28221, -60.96910,
,,,5696.61254, -60.96910,
,,,5708.94287, -60.96910,
,,,5721.27320, -60.96910,
,,,5733.60353, -60.96910,
,,,5745.93386, -60.96910,
,,,5758.26419, -59.76910,
,,,5770.59452, -60.96910,
,,,5782.92485, -60.96910,
,,,5795.25518, -60.96910,
,,,5807.58551, -57.36910,
,,,5819.91584, -57.76910,
,,,5832.24617, -60.96910,
,,,5844.57650, -60.96910,
,,,5856.90683, -60.96910,
,,,5869.23716, -60.96910,
,,,5881.56749, -60.96910,
,,,5893.89782, -59.76910,
,,,5906.22815, -60.96910,
,,,5918.55848, -60.96910,
,,,5930.88881, -60.96910,
,,,5943.21914, -60.96910,
,,,5955.54947, -60.96910,
,,,5967.87980, -60.96910,
,,,5980.21013, -59.76910,
,,,5992.54046, -60.96910,
,,,6004.87079, -60.96910,
,,,6017.20112, -60.96910,
,,,6029.53145, -60.96910,
,,,6041.86178, -60.96910,
,,,6054.19211, -60.96910,
,,,6066.52244, -60.96910,
,,,6078.85277, -59.76910,
,,,6091.18310, -60.96910,
,,,6103.51343, -60.96910,
,,,6115.84376, -60.96910,
,,,6128.17409, -60.96910,
,,,6140.50442, -60.96910,
,,,6152.83475, -60.96910,
,,,6165.16508, -60.96910,
,,,6177.49541, -60.96910,
,,,6189.82574, -60.96910,
,,,6202.15607, -60.96910,
,,,6214.48640, -60.96910,
,,,6226.81673, -60.96910,
,,,6239.14706, -60.96910,
,,,6251.47739, -60.96910,
,,,6263.80772, -60.96910,
,,,6276.13805, -60.96910,
,,,6288.46838, -60.96910,
,,,6300.79871, -60.96910,
,,,6313.12904, -60.96910,
,,,6325.45937, -59.76910,
,,,6337.78970, -59.76910,
,,,6350.12003, -60.96910,
,,,6362.45036, -60.96910,
,,,6374.78069, -60.96910,
,,,6387.11102, -60.96910,
,,,6399.44135, -60.96910,
,,,6411.77168, -60.96910,
,,,6424.10201, -57.76910,
,,,6436.43234, -60.96910,
,,,6448.76267, -60.96910,
,,,6461.09300, -60.96910,
,,,6473.42333, -60.96910,
,,,6485.75366, -60.96910,
,,,6498.08399, -53.76910,
,,,6510.41432, -50.96910,
,,,6522.74465, -60.96910,
,,,6535.07498, -59.76910,
,,,6547.40531, -60.96910,
,,,6559.73564, -60.96910,
,,,6572.06597, -60.96910,
,,,6584.39630, -60.96910,
,,,6596.72663, -60.96910,
,,,6609.05696, -60.96910,
,,,6621.38729, -59.76910,
,,,6633.71762, -60.96910,
,,,6646.04795, -60.96910,
,,,6658.37828, -60.96910,
,,,6670.70861, -60.96910,
,,,6683.03894, -60.96910,
,,,6695.36927, -60.96910,
,,,6707.69960, -60.96910,
,,,6720.02993, -57.76910,
,,,6732.36026, -60.96910,
,,,6744.69059, -60.96910,
,,,6757.02092, -60.96910,
,,,6769.35125, -60.96910,
,,,6781.68158, -60.96910,
,,,6794.01191, -60.96910,
,,,6806.34224, -60.96910,
,,,6818.67257, -60.96910,
,,,6831.00290, -60.96910,
,,,6843.33323, -60.96910,
,,,6855.66356, -60.96910,
,,,6867.99389, -59.76910,
,,,6880.32422, -60.96910,
,,,6892.65455, -60.96910,
,,,6904.98488, -60.96910,
,,,6917.31521, -59.76910,
,,,6929.64554, -60.96910,
,,,6941.97587, -60.96910,
,,,6954.30620, -60.96910,
,,,6966.63653, -60.96910,
,,,6978.96686, -60.96910,
,,,6991.29719, -60.96910,
,,,7003.62752, -60.96910,
,,,7015.95785, -60.96910,
,,,7028.28818, -59.76910,
,,,7040.61851, -57.76910,
,,,7052.94884, -60.96910,
,,,7065.27917, -60.96910,
,,,7077.60950, -57.76910,
,,,7089.93983, -60.96910,
,,,7102.27016, -60.96910,
,,,7114.60049, -57.76910,
,,,7126.93082, -60.96910,
,,,7139.26115, -60.96910,
,,,7151.59148, -60.96910,
,,,7163.92181, -59.76910,
,,,7176.25214, -60.96910,
,,,7188.58247, -60.96910,
,,,7200.91280, -60.96910,
,,,7213.24313, -60.96910,
,,,7225.57346, -60.96910,
,,,7237.90379, -60.96910,
,,,7250.23412, -60.96910,
,,,7262.56445, -60.96910,
,,,7274.89478, -59.76910,
,,,7287.22511, -59.76910,
,,,7299.55544, -60.96910,
,,,7311.88577, -60.96910,
,,,7324.21610, -60.96910,
,,,7336.54643, -59.76910,
,,,7348.87676, -60.96910,
,,,7361.20709, -60.96910,
,,,7373.53742, -60.96910,
,,,7385.86775, -57.76910,
,,,7398.19808, -57.76910,
,,,7410.52841, -60.96910,
,,,7422.85874, -60.96910,
,,,7435.18907, -60.96910,
,,,7447.51940, -60.96910,
,,,7459.84973, -56.96910,
,,,7472.18006, -59.76910,
,,,7484.51039, -60.96910,
,,,7496.84072, -60.96910,
,,,7509.17105, -60.96910,
,,,7521.50138, -60.96910,
,,,7533.83171, -57.76910,
,,,7546.16204, -60.96910,
,,,7558.49237, -60.96910,
,,,7570.82270, -59.76910,
,,,7583.15303, -60.96910,
,,,7595.48336, -60.96910,
,,,7607.81369, -60.96910,
,,,7620.14402, -59.76910,
,,,7632.47435, -60.96910,
,,,7644.80468, -60.96910,
,,,7657.13501, -60.96910,
,,,7669.46534, -60.96910,
,,,7681.79567, -60.96910,
,,,7694.12600, -60.96910,
,,,7706.45633, -60.96910,
,,,7718.78666, -60.96910,
,,,7731.11699, -60.96910,
,,,7743.44732, -60.96910,
,,,7755.77765, -59.76910,
,,,7768.10798, -60.96910,
,,,7780.43831, -60.96910,
,,,7792.76864, -60.96910,
,,,7805.09897, -60.96910,
,,,7817.42930, -60.96910,
,,,7829.75963, -60.96910,
,,,7842.08996, -60.96910,
,,,7854.42029, -60.96910,
,,,7866.75062, -60.96910,
,,,7879.08095, -60.96910,
,,,7891.41128, -60.96910,
,,,7903.74161, -60.96910,
,,,7916.07194, -60.96910,
,,,7928.40227, -60.96910,
,,,7940.73260, -60.96910,
,,,7953.06293, -60.96910,
,,,7965.39326, -60.96910,
,,,7977.72359, -60.96910,
,,,7990.05392, -60.96910,
,,,8002.38425, -60.96910,
,,,8014.71458, -60.96910,
,,,8027.04491, -60.96910,
,,,8039.37524, -55.76910,
,,,8051.70557, -57.76910,
,,,8064.03590, -59.76910,
,,,8076.36623, -60.96910,
,,,8088.69656, -60.96910,
,,,8101.02689, -60.96910,
,,,8113.35722, -60.96910,
,,,8125.68755, -60.96910,
,,,8138.01788, -59.76910,
,,,8150.34821, -57.36910,
,,,8162.67854, -60.96910,
,,,8175.00887, -60.96910,
,,,8187.33920, -60.96910,
,,,8199.66953, -60.96910,
,,,8211.99986, -60.96910,
,,,8224.33019, -60.96910,
,,,8236.66052, -60.96910,
,,,8248.99085, -60.96910,
,,,8261.32118, -60.96910,
,,,8273.65151, -60.96910,
,,,8285.98184, -60.96910,
,,,8298.31217, -60.96910,
,,,8310.64250, -59.76910,
,,,8322.97283, -60.96910,
,,,8335.30316, -60.96910,
,,,8347.63349, -60.96910,
,,,8359.96382, -60.96910,
,,,8372.29415, -60.96910,
,,,8384.62448, -60.96910,
,,,8396.95481, -60.96910,
,,,8409.28514, -60.96910,
,,,8421.61547, -60.96910,
,,,8433.94580, -60.96910,
,,,8446.27613, -60.96910,
,,,8458.60646, -60.96910,
,,,8470.93679, -60.96910,
,,,8483.26712, -60.96910,
,,,8495.59745, -60.96910,
,,,8507.92778, -60.96910,
,,,8520.25811, -60.96910,
,,,8532.58844, -60.96910,
,,,8544.91877, -60.96910,
,,,8557.24910, -60.96910,
,,,8569.57943, -59.76910,
,,,8581.90976, -60.96910,
,,,8594.24009, -60.96910,
,,,8606.57042, -60.96910,
,,,8618.90075, -60.96910,
,,,8631.23108, -60.96910,
,,,8643.56141, -60.96910,
,,,8655.89174, -60.96910,
,,,8668.22207, -60.96910,
,,,8680.55240, -60.96910,
,,,8692.88273, -60.96910,
,,,8705.21306, -60.96910,
,,,8717.54339, -60.96910,
,,,8729.87372, -60.96910,
,,,8742.20405, -60.96910,
,,,8754.53438, -60.96910,
,,,8766.86471, -60.96910,
,,,8779.19504, -60.96910,
,,,8791.52537, -60.96910,
,,,8803.85570, -60.96910,
,,,8816.18603, -60.96910,
,,,8828.51636, -60.96910,
,,,8840.84669, -60.96910,
,,,8853.17702, -60.96910,
,,,8865.50735, -60.96910,
,,,8877.83768, -60.96910,
,,,8890.16801, -60.96910,
,,,8902.49834, -60.96910,
,,,8914.82867, -60.96910,
,,,8927.15900, -59.76910,
,,,8939.48933, -55.76910,
,,,8951.81966, -55.76910,
,,,8964.14999, -60.96910,
,,,8976.48032, -60.96910,
,,,8988.81065, -60.96910,
,,,9001.14098, -60.96910,
,,,9013.47131, -54.56910,
,,,9025.80164, -57.76910,
,,,9038.13197, -60.96910,
,,,9050.46230, -60.96910,
,,,9062.79263, -60.96910,
,,,9075.12296, -60.96910,
,,,9087.45329, -60.96910,
,,,9099.78362, -60.96910,
,,,9112.11395, -56.96910,
,,,9124.44428, -57.36910,
,,,9136.77461, -60.96910,
,,,9149.10494, -60.96910,
,,,9161.43527, -60.96910,
,,,9173.76560, -60.96910,
,,,9186.09593, -56.96910,
,,,9198.42626, -59.76910,
,,,9210.75659, -60.96910,
,,,9223.08692, -60.96910,
,,,9235.41725, -60.96910,
,,,9247.74758, -60.96910,
,,,9260.07791, -60.96910,
,,,9272.40824, -56.96910,
,,,9284.73857, -59.76910,
