Práctica 2 21-03-19/set de señales/FFT220/F0004FFT.CSV

Record Length,1.024000e+03,,          0.00000, -14.94850,
Sample Interval,4.932134e-01,,          0.49321, -18.14850,
Trigger Point,-0.000000000000e+00,,          0.98643, -74.94850,
,,,          1.47964, -74.94850,
,,,          1.97285, -74.94850,
,,,          2.46607, -74.94850,
Source,FFT,,          2.95928, -74.94850,
Vertical Units,dB,,          3.45249, -74.94850,
Vertical Scale,1.000000e+01,,          3.94571, -74.94850,
Vertical Offset,0.000000e+00,,          4.43892, -74.94850,
Horizontal Units,Hz,,          4.93213, -74.94850,
Horizontal Scale,5.050505e+01,,          5.42535, -74.94850,
Pt Fmt,Y,,          5.91856, -74.94850,
Yzero,-3.494850e+01,,          6.41177, -74.94850,
Probe Atten,1.000000e+00,,          6.90499, -74.94850,
Model Number,TBS1052B-EDU,,          7.39820, -74.94850,
Serial Number,C015250,,          7.89141, -74.94850,
Firmware Version,FV:v4.0,,          8.38463, -74.94850,
,,,8.87784, -74.94850,
,,,9.37105, -74.94850,
,,,9.86426, -74.94850,
,,,10.35747, -74.94850,
,,,10.85068, -74.94850,
,,,11.34389, -74.94850,
,,,11.83710, -74.94850,
,,,12.33031, -74.94850,
,,,12.82352, -74.94850,
,,,13.31673, -74.94850,
,,,13.80994, -74.94850,
,,,14.30315, -74.94850,
,,,14.79636, -74.94850,
,,,15.28957, -74.94850,
,,,15.78278, -74.94850,
,,,16.27599, -74.94850,
,,,16.76920, -74.94850,
,,,17.26241, -74.94850,
,,,17.75562, -74.94850,
,,,18.24883, -73.74850,
,,,18.74204, -74.94850,
,,,19.23525, -74.94850,
,,,19.72846, -73.74850,
,,,20.22167, -74.94850,
,,,20.71488, -73.74850,
,,,21.20809, -74.94850,
,,,21.70130, -74.94850,
,,,22.19451, -74.94850,
,,,22.68772, -74.94850,
,,,23.18093, -74.94850,
,,,23.67414, -73.74850,
,,,24.16735, -74.94850,
,,,24.66056, -74.94850,
,,,25.15377, -74.94850,
,,,25.64698, -74.94850,
,,,26.14019, -74.94850,
,,,26.63340, -74.94850,
,,,27.12661, -74.94850,
,,,27.61982, -74.94850,
,,,28.11303, -74.94850,
,,,28.60624, -74.94850,
,,,29.09945, -74.94850,
,,,29.59266, -74.94850,
,,,30.08587, -74.94850,
,,,30.57908, -74.94850,
,,,31.07229, -74.94850,
,,,31.56550, -74.94850,
,,,32.05871, -74.94850,
,,,32.55192, -74.94850,
,,,33.04513, -74.94850,
,,,33.53834, -74.94850,
,,,34.03155, -74.94850,
,,,34.52476, -74.94850,
,,,35.01797, -74.94850,
,,,35.51118, -74.94850,
,,,36.00439, -74.94850,
,,,36.49760, -74.94850,
,,,36.99081, -74.94850,
,,,37.48402, -74.94850,
,,,37.97723, -74.94850,
,,,38.47044, -74.94850,
,,,38.96365, -74.94850,
,,,39.45686, -74.94850,
,,,39.95007, -73.74850,
,,,40.44328, -74.94850,
,,,40.93649, -74.94850,
,,,41.42970, -74.94850,
,,,41.92291, -74.94850,
,,,42.41612, -74.94850,
,,,42.90933, -74.94850,
,,,43.40254, -74.94850,
,,,43.89575, -74.94850,
,,,44.38896, -74.94850,
,,,44.88217, -74.94850,
,,,45.37538, -74.94850,
,,,45.86859, -74.94850,
,,,46.36180, -73.74850,
,,,46.85501, -74.94850,
,,,47.34822, -74.94850,
,,,47.84143, -74.94850,
,,,48.33464, -74.94850,
,,,48.82785, -74.94850,
,,,49.32106, -74.94850,
,,,49.81427, -74.94850,
,,,50.30748, -74.94850,
,,,50.80069, -74.94850,
,,,51.29390, -74.94850,
,,,51.78711, -74.94850,
,,,52.28032, -74.94850,
,,,52.77353, -74.94850,
,,,53.26674, -74.94850,
,,,53.75995, -74.94850,
,,,54.25316, -74.94850,
,,,54.74637, -74.94850,
,,,55.23958, -74.94850,
,,,55.73279, -74.94850,
,,,56.22600, -74.94850,
,,,56.71921, -74.94850,
,,,57.21242, -74.94850,
,,,57.70563, -74.94850,
,,,58.19884, -74.94850,
,,,58.69205, -74.94850,
,,,59.18526, -74.94850,
,,,59.67847, -74.94850,
,,,60.17168, -73.74850,
,,,60.66489, -74.94850,
,,,61.15810, -73.74850,
,,,61.65131, -74.94850,
,,,62.14452, -74.94850,
,,,62.63773, -74.94850,
,,,63.13094, -71.34850,
,,,63.62415, -74.94850,
,,,64.11736, -74.94850,
,,,64.61057, -74.94850,
,,,65.10378, -74.94850,
,,,65.59699, -74.94850,
,,,66.09020, -74.94850,
,,,66.58341, -74.94850,
,,,67.07662, -74.94850,
,,,67.56983, -74.94850,
,,,68.06304, -74.94850,
,,,68.55625, -74.94850,
,,,69.04946, -74.94850,
,,,69.54267, -74.94850,
,,,70.03588, -74.94850,
,,,70.52909, -74.94850,
,,,71.02230, -73.74850,
,,,71.51551, -74.94850,
,,,72.00872, -74.94850,
,,,72.50193, -74.94850,
,,,72.99514, -73.74850,
,,,73.48835, -74.94850,
,,,73.98156, -74.94850,
,,,74.47477, -73.74850,
,,,74.96798, -74.94850,
,,,75.46119, -74.94850,
,,,75.95440, -74.94850,
,,,76.44761, -74.94850,
,,,76.94082, -74.94850,
,,,77.43403, -74.94850,
,,,77.92724, -74.94850,
,,,78.42045, -74.94850,
,,,78.91366, -69.74850,
,,,79.40687, -69.74850,
,,,79.90008, -74.94850,
,,,80.39329, -74.94850,
,,,80.88650, -74.94850,
,,,81.37971, -73.74850,
,,,81.87292, -74.94850,
,,,82.36613, -74.94850,
,,,82.85934, -74.94850,
,,,83.35255, -74.94850,
,,,83.84576, -74.94850,
,,,84.33897, -74.94850,
,,,84.83218, -74.94850,
,,,85.32539, -74.94850,
,,,85.81860, -74.94850,
,,,86.31181, -74.94850,
,,,86.80502, -74.94850,
,,,87.29823, -74.94850,
,,,87.79144, -74.94850,
,,,88.28465, -74.94850,
,,,88.77786, -74.94850,
,,,89.27107, -74.94850,
,,,89.76428, -74.94850,
,,,90.25749, -73.74850,
,,,90.75070, -74.94850,
,,,91.24391, -74.94850,
,,,91.73712, -74.94850,
,,,92.23033, -74.94850,
,,,92.72354, -74.94850,
,,,93.21675, -74.94850,
,,,93.70996, -74.94850,
,,,94.20317, -74.94850,
,,,94.69638, -74.94850,
,,,95.18959, -74.94850,
,,,95.68280, -74.94850,
,,,96.17601, -73.74850,
,,,96.66922, -74.94850,
,,,97.16243, -74.94850,
,,,97.65564, -73.74850,
,,,98.14885, -73.74850,
,,,98.64206, -74.94850,
,,,99.13527, -74.94850,
,,,99.62848, -74.94850,
,,,100.12169, -74.94850,
,,,100.61490, -74.94850,
,,,101.10811, -74.94850,
,,,101.60132, -73.74850,
,,,102.09453, -74.94850,
,,,102.58774, -74.94850,
,,,103.08095, -74.94850,
,,,103.57416, -73.74850,
,,,104.06737, -74.94850,
,,,104.56058, -74.94850,
,,,105.05379, -74.94850,
,,,105.54700, -74.94850,
,,,106.04021, -74.94850,
,,,106.53342, -74.94850,
,,,107.02663, -74.94850,
,,,107.51984, -74.94850,
,,,108.01305, -74.94850,
,,,108.50626, -74.94850,
,,,108.99947, -74.94850,
,,,109.49268, -74.94850,
,,,109.98589, -74.94850,
,,,110.47910, -74.94850,
,,,110.97231, -74.94850,
,,,111.46552, -74.94850,
,,,111.95873, -74.94850,
,,,112.45194, -74.94850,
,,,112.94515, -74.94850,
,,,113.43836, -74.94850,
,,,113.93157, -74.94850,
,,,114.42478, -74.94850,
,,,114.91799, -74.94850,
,,,115.41120, -73.74850,
,,,115.90441, -74.94850,
,,,116.39762, -73.74850,
,,,116.89083, -73.74850,
,,,117.38404, -74.94850,
,,,117.87725, -74.94850,
,,,118.37046, -74.94850,
,,,118.86367, -74.94850,
,,,119.35688, -74.94850,
,,,119.85009, -74.94850,
,,,120.34330, -74.94850,
,,,120.83651, -74.94850,
,,,121.32972, -74.94850,
,,,121.82293, -74.94850,
,,,122.31614, -74.94850,
,,,122.80935, -74.94850,
,,,123.30256, -74.94850,
,,,123.79577, -74.94850,
,,,124.28898, -73.74850,
,,,124.78219, -74.94850,
,,,125.27540, -74.94850,
,,,125.76861, -74.94850,
,,,126.26182, -74.94850,
,,,126.75503, -74.94850,
,,,127.24824, -74.94850,
,,,127.74145, -74.94850,
,,,128.23466, -73.74850,
,,,128.72787, -74.94850,
,,,129.22108, -74.94850,
,,,129.71429, -74.94850,
,,,130.20750, -74.94850,
,,,130.70071, -74.94850,
,,,131.19392, -74.94850,
,,,131.68713, -74.94850,
,,,132.18034, -74.94850,
,,,132.67355, -74.94850,
,,,133.16676, -74.94850,
,,,133.65997, -74.94850,
,,,134.15318, -74.94850,
,,,134.64639, -74.94850,
,,,135.13960, -74.94850,
,,,135.63281, -74.94850,
,,,136.12602, -73.74850,
,,,136.61923, -74.94850,
,,,137.11244, -74.94850,
,,,137.60565, -74.94850,
,,,138.09886, -74.94850,
,,,138.59207, -73.74850,
,,,139.08528, -73.74850,
,,,139.57849, -73.74850,
,,,140.07170, -74.94850,
,,,140.56491, -74.94850,
,,,141.05812, -74.94850,
,,,141.55133, -74.94850,
,,,142.04454, -74.94850,
,,,142.53775, -74.94850,
,,,143.03096, -74.94850,
,,,143.52417, -74.94850,
,,,144.01738, -74.94850,
,,,144.51059, -74.94850,
,,,145.00380, -74.94850,
,,,145.49701, -74.94850,
,,,145.99022, -74.94850,
,,,146.48343, -74.94850,
,,,146.97664, -73.74850,
,,,147.46985, -73.74850,
,,,147.96306, -74.94850,
,,,148.45627, -74.94850,
,,,148.94948, -70.94850,
,,,149.44269, -71.34850,
,,,149.93590, -74.94850,
,,,150.42911, -74.94850,
,,,150.92232, -74.94850,
,,,151.41553, -74.94850,
,,,151.90874, -74.94850,
,,,152.40195, -74.94850,
,,,152.89516, -74.94850,
,,,153.38837, -74.94850,
,,,153.88158, -73.74850,
,,,154.37479, -74.94850,
,,,154.86800, -74.94850,
,,,155.36121, -74.94850,
,,,155.85442, -74.94850,
,,,156.34763, -74.94850,
,,,156.84084, -74.94850,
,,,157.33405, -74.94850,
,,,157.82726, -74.94850,
,,,158.32047, -74.94850,
,,,158.81368, -74.94850,
,,,159.30689, -74.94850,
,,,159.80010, -74.94850,
,,,160.29331, -74.94850,
,,,160.78652, -74.94850,
,,,161.27973, -74.94850,
,,,161.77294, -74.94850,
,,,162.26615, -74.94850,
,,,162.75936, -74.94850,
,,,163.25257, -74.94850,
,,,163.74578, -74.94850,
,,,164.23899, -73.74850,
,,,164.73220, -74.94850,
,,,165.22541, -73.74850,
,,,165.71862, -73.74850,
,,,166.21183, -74.94850,
,,,166.70504, -74.94850,
,,,167.19825, -74.94850,
,,,167.69146, -74.94850,
,,,168.18467, -74.94850,
,,,168.67788, -74.94850,
,,,169.17109, -74.94850,
,,,169.66430, -74.94850,
,,,170.15751, -74.94850,
,,,170.65072, -74.94850,
,,,171.14393, -74.94850,
,,,171.63714, -74.94850,
,,,172.13035, -74.94850,
,,,172.62356, -74.94850,
,,,173.11677, -74.94850,
,,,173.60998, -74.94850,
,,,174.10319, -73.74850,
,,,174.59640, -74.94850,
,,,175.08961, -74.94850,
,,,175.58282, -74.94850,
,,,176.07603, -73.74850,
,,,176.56924, -74.94850,
,,,177.06245, -74.94850,
,,,177.55566, -74.94850,
,,,178.04887, -74.94850,
,,,178.54208, -74.94850,
,,,179.03529, -74.94850,
,,,179.52850, -74.94850,
,,,180.02171, -73.74850,
,,,180.51492, -74.94850,
,,,181.00813, -74.94850,
,,,181.50134, -74.94850,
,,,181.99455, -74.94850,
,,,182.48776, -74.94850,
,,,182.98097, -74.94850,
,,,183.47418, -74.94850,
,,,183.96739, -74.94850,
,,,184.46060, -74.94850,
,,,184.95381, -74.94850,
,,,185.44702, -74.94850,
,,,185.94023, -74.94850,
,,,186.43344, -74.94850,
,,,186.92665, -74.94850,
,,,187.41986, -74.94850,
,,,187.91307, -74.94850,
,,,188.40628, -74.94850,
,,,188.89949, -74.94850,
,,,189.39270, -74.94850,
,,,189.88591, -74.94850,
,,,190.37912, -74.94850,
,,,190.87233, -74.94850,
,,,191.36554, -74.94850,
,,,191.85875, -74.94850,
,,,192.35196, -74.94850,
,,,192.84517, -74.94850,
,,,193.33838, -73.74850,
,,,193.83159, -73.74850,
,,,194.32480, -74.94850,
,,,194.81801, -73.74850,
,,,195.31122, -74.94850,
,,,195.80443, -74.94850,
,,,196.29764, -74.94850,
,,,196.79085, -74.94850,
,,,197.28406, -74.94850,
,,,197.77727, -74.94850,
,,,198.27048, -74.94850,
,,,198.76369, -74.94850,
,,,199.25690, -74.94850,
,,,199.75011, -74.94850,
,,,200.24332, -74.94850,
,,,200.73653, -69.74850,
,,,201.22974, -65.74850,
,,,201.72295, -68.94850,
,,,202.21616, -71.74850,
,,,202.70937, -73.74850,
,,,203.20258, -74.94850,
,,,203.69579, -74.94850,
,,,204.18900, -74.94850,
,,,204.68221, -74.94850,
,,,205.17542, -74.94850,
,,,205.66863, -74.94850,
,,,206.16184, -74.94850,
,,,206.65505, -74.94850,
,,,207.14826, -74.94850,
,,,207.64147, -74.94850,
,,,208.13468, -74.94850,
,,,208.62789, -74.94850,
,,,209.12110, -74.94850,
,,,209.61431, -74.94850,
,,,210.10752, -74.94850,
,,,210.60073, -74.94850,
,,,211.09394, -73.74850,
,,,211.58715, -74.94850,
,,,212.08036, -71.74850,
,,,212.57357, -70.94850,
,,,213.06678, -73.74850,
,,,213.55999, -74.94850,
,,,214.05320, -74.94850,
,,,214.54641, -74.94850,
,,,215.03962, -66.94850,
,,,215.53283, -63.74850,
,,,216.02604, -50.54850,
,,,216.51925, -22.94850,
,,,217.01246, -18.54850,
,,,217.50567, -26.54850,
,,,217.99888, -54.54850,
,,,218.49209, -64.94850,
,,,218.98530, -74.94850,
,,,219.47851, -74.94850,
,,,219.97172, -74.94850,
,,,220.46493, -74.94850,
,,,220.95814, -74.94850,
,,,221.45135, -74.94850,
,,,221.94456, -74.94850,
,,,222.43777, -74.94850,
,,,222.93098, -74.94850,
,,,223.42419, -70.94850,
,,,223.91740, -74.94850,
,,,224.41061, -74.94850,
,,,224.90382, -74.94850,
,,,225.39703, -74.94850,
,,,225.89024, -74.94850,
,,,226.38345, -74.94850,
,,,226.87666, -74.94850,
,,,227.36987, -73.74850,
,,,227.86308, -74.94850,
,,,228.35629, -74.94850,
,,,228.84950, -74.94850,
,,,229.34271, -74.94850,
,,,229.83592, -74.94850,
,,,230.32913, -74.94850,
,,,230.82234, -74.94850,
,,,231.31555, -74.94850,
,,,231.80876, -74.94850,
,,,232.30197, -74.94850,
,,,232.79518, -68.54850,
,,,233.28839, -74.94850,
,,,233.78160, -74.94850,
,,,234.27481, -74.94850,
,,,234.76802, -74.94850,
,,,235.26123, -74.94850,
,,,235.75444, -74.94850,
,,,236.24765, -74.94850,
,,,236.74086, -74.94850,
,,,237.23407, -74.94850,
,,,237.72728, -73.74850,
,,,238.22049, -74.94850,
,,,238.71370, -74.94850,
,,,239.20691, -74.94850,
,,,239.70012, -74.94850,
,,,240.19333, -74.94850,
,,,240.68654, -74.94850,
,,,241.17975, -74.94850,
,,,241.67296, -74.94850,
,,,242.16617, -74.94850,
,,,242.65938, -74.94850,
,,,243.15259, -74.94850,
,,,243.64580, -74.94850,
,,,244.13901, -74.94850,
,,,244.63222, -73.74850,
,,,245.12543, -74.94850,
,,,245.61864, -74.94850,
,,,246.11185, -74.94850,
,,,246.60506, -74.94850,
,,,247.09827, -74.94850,
,,,247.59148, -74.94850,
,,,248.08469, -74.94850,
,,,248.57790, -71.74850,
,,,249.07111, -74.94850,
,,,249.56432, -74.94850,
,,,250.05753, -74.94850,
,,,250.55074, -74.94850,
,,,251.04395, -73.74850,
,,,251.53716, -74.94850,
,,,252.03037, -74.94850,
,,,252.52358, -74.94850,
,,,253.01679, -74.94850,
,,,253.51000, -74.94850,
,,,254.00321, -74.94850,
,,,254.49642, -74.94850,
,,,254.98963, -74.94850,
,,,255.48284, -74.94850,
,,,255.97605, -74.94850,
,,,256.46926, -74.94850,
,,,256.96247, -74.94850,
,,,257.45568, -74.94850,
,,,257.94889, -74.94850,
,,,258.44210, -74.94850,
,,,258.93531, -74.94850,
,,,259.42852, -74.94850,
,,,259.92173, -74.94850,
,,,260.41494, -74.94850,
,,,260.90815, -74.94850,
,,,261.40136, -74.94850,
,,,261.89457, -74.94850,
,,,262.38778, -74.94850,
,,,262.88099, -73.74850,
,,,263.37420, -74.94850,
,,,263.86741, -73.74850,
,,,264.36062, -74.94850,
,,,264.85383, -69.74850,
,,,265.34704, -70.94850,
,,,265.84025, -73.74850,
,,,266.33346, -74.94850,
,,,266.82667, -73.74850,
,,,267.31988, -73.74850,
,,,267.81309, -74.94850,
,,,268.30630, -74.94850,
,,,268.79951, -74.94850,
,,,269.29272, -74.94850,
,,,269.78593, -74.94850,
,,,270.27914, -74.94850,
,,,270.77235, -74.94850,
,,,271.26556, -74.94850,
,,,271.75877, -74.94850,
,,,272.25198, -74.94850,
,,,272.74519, -73.74850,
,,,273.23840, -74.94850,
,,,273.73161, -74.94850,
,,,274.22482, -74.94850,
,,,274.71803, -74.94850,
,,,275.21124, -74.94850,
,,,275.70445, -74.94850,
,,,276.19766, -74.94850,
,,,276.69087, -74.94850,
,,,277.18408, -74.94850,
,,,277.67729, -73.74850,
,,,278.17050, -74.94850,
,,,278.66371, -74.94850,
,,,279.15692, -74.94850,
,,,279.65013, -74.94850,
,,,280.14334, -70.94850,
,,,280.63655, -74.94850,
,,,281.12976, -74.94850,
,,,281.62297, -74.94850,
,,,282.11618, -74.94850,
,,,282.60939, -74.94850,
,,,283.10260, -73.74850,
,,,283.59581, -74.94850,
,,,284.08902, -74.94850,
,,,284.58223, -74.94850,
,,,285.07544, -73.74850,
,,,285.56865, -74.94850,
,,,286.06186, -74.94850,
,,,286.55507, -74.94850,
,,,287.04828, -74.94850,
,,,287.54149, -74.94850,
,,,288.03470, -74.94850,
,,,288.52791, -73.74850,
,,,289.02112, -74.94850,
,,,289.51433, -74.94850,
,,,290.00754, -74.94850,
,,,290.50075, -74.94850,
,,,290.99396, -74.94850,
,,,291.48717, -73.74850,
,,,291.98038, -74.94850,
,,,292.47359, -73.74850,
,,,292.96680, -74.94850,
,,,293.46001, -73.74850,
,,,293.95322, -73.74850,
,,,294.44643, -74.94850,
,,,294.93964, -74.94850,
,,,295.43285, -74.94850,
,,,295.92606, -74.94850,
,,,296.41927, -73.74850,
,,,296.91248, -74.94850,
,,,297.40569, -74.94850,
,,,297.89890, -74.94850,
,,,298.39211, -74.94850,
,,,298.88532, -74.94850,
,,,299.37853, -74.94850,
,,,299.87174, -73.74850,
,,,300.36495, -73.74850,
,,,300.85816, -74.94850,
,,,301.35137, -73.74850,
,,,301.84458, -74.94850,
,,,302.33779, -74.94850,
,,,302.83100, -74.94850,
,,,303.32421, -74.94850,
,,,303.81742, -74.94850,
,,,304.31063, -74.94850,
,,,304.80384, -74.94850,
,,,305.29705, -74.94850,
,,,305.79026, -74.94850,
,,,306.28347, -74.94850,
,,,306.77668, -74.94850,
,,,307.26989, -74.94850,
,,,307.76310, -74.94850,
,,,308.25631, -74.94850,
,,,308.74952, -74.94850,
,,,309.24273, -74.94850,
,,,309.73594, -74.94850,
,,,310.22915, -74.94850,
,,,310.72236, -74.94850,
,,,311.21557, -73.74850,
,,,311.70878, -71.74850,
,,,312.20199, -73.74850,
,,,312.69520, -74.94850,
,,,313.18841, -74.94850,
,,,313.68162, -74.94850,
,,,314.17483, -74.94850,
,,,314.66804, -74.94850,
,,,315.16125, -74.94850,
,,,315.65446, -74.94850,
,,,316.14767, -74.94850,
,,,316.64088, -74.94850,
,,,317.13409, -74.94850,
,,,317.62730, -74.94850,
,,,318.12051, -74.94850,
,,,318.61372, -74.94850,
,,,319.10693, -73.74850,
,,,319.60014, -74.94850,
,,,320.09335, -74.94850,
,,,320.58656, -74.94850,
,,,321.07977, -74.94850,
,,,321.57298, -74.94850,
,,,322.06619, -74.94850,
,,,322.55940, -74.94850,
,,,323.05261, -74.94850,
,,,323.54582, -74.94850,
,,,324.03903, -74.94850,
,,,324.53224, -74.94850,
,,,325.02545, -74.94850,
,,,325.51866, -74.94850,
,,,326.01187, -74.94850,
,,,326.50508, -74.94850,
,,,326.99829, -74.94850,
,,,327.49150, -74.94850,
,,,327.98471, -74.94850,
,,,328.47792, -74.94850,
,,,328.97113, -74.94850,
,,,329.46434, -74.94850,
,,,329.95755, -74.94850,
,,,330.45076, -74.94850,
,,,330.94397, -74.94850,
,,,331.43718, -74.94850,
,,,331.93039, -74.94850,
,,,332.42360, -74.94850,
,,,332.91681, -74.94850,
,,,333.41002, -74.94850,
,,,333.90323, -74.94850,
,,,334.39644, -74.94850,
,,,334.88965, -73.74850,
,,,335.38286, -74.94850,
,,,335.87607, -74.94850,
,,,336.36928, -74.94850,
,,,336.86249, -74.94850,
,,,337.35570, -74.94850,
,,,337.84891, -74.94850,
,,,338.34212, -74.94850,
,,,338.83533, -74.94850,
,,,339.32854, -74.94850,
,,,339.82175, -74.94850,
,,,340.31496, -74.94850,
,,,340.80817, -74.94850,
,,,341.30138, -74.94850,
,,,341.79459, -74.94850,
,,,342.28780, -74.94850,
,,,342.78101, -74.94850,
,,,343.27422, -74.94850,
,,,343.76743, -74.94850,
,,,344.26064, -74.94850,
,,,344.75385, -73.74850,
,,,345.24706, -73.74850,
,,,345.74027, -74.94850,
,,,346.23348, -74.94850,
,,,346.72669, -74.94850,
,,,347.21990, -74.94850,
,,,347.71311, -74.94850,
,,,348.20632, -74.94850,
,,,348.69953, -74.94850,
,,,349.19274, -74.94850,
,,,349.68595, -73.74850,
,,,350.17916, -73.74850,
,,,350.67237, -74.94850,
,,,351.16558, -74.94850,
,,,351.65879, -74.94850,
,,,352.15200, -74.94850,
,,,352.64521, -74.94850,
,,,353.13842, -74.94850,
,,,353.63163, -74.94850,
,,,354.12484, -74.94850,
,,,354.61805, -74.94850,
,,,355.11126, -74.94850,
,,,355.60447, -74.94850,
,,,356.09768, -74.94850,
,,,356.59089, -74.94850,
,,,357.08410, -74.94850,
,,,357.57731, -73.74850,
,,,358.07052, -73.74850,
,,,358.56373, -74.94850,
,,,359.05694, -74.94850,
,,,359.55015, -74.94850,
,,,360.04336, -74.94850,
,,,360.53657, -74.94850,
,,,361.02978, -74.94850,
,,,361.52299, -74.94850,
,,,362.01620, -74.94850,
,,,362.50941, -74.94850,
,,,363.00262, -74.94850,
,,,363.49583, -74.94850,
,,,363.98904, -74.94850,
,,,364.48225, -74.94850,
,,,364.97546, -74.94850,
,,,365.46867, -74.94850,
,,,365.96188, -74.94850,
,,,366.45509, -73.74850,
,,,366.94830, -74.94850,
,,,367.44151, -74.94850,
,,,367.93472, -74.94850,
,,,368.42793, -74.94850,
,,,368.92114, -74.94850,
,,,369.41435, -74.94850,
,,,369.90756, -74.94850,
,,,370.40077, -74.94850,
,,,370.89398, -74.94850,
,,,371.38719, -74.94850,
,,,371.88040, -74.94850,
,,,372.37361, -74.94850,
,,,372.86682, -74.94850,
,,,373.36003, -74.94850,
,,,373.85324, -74.94850,
,,,374.34645, -74.94850,
,,,374.83966, -74.94850,
,,,375.33287, -74.94850,
,,,375.82608, -74.94850,
,,,376.31929, -74.94850,
,,,376.81250, -74.94850,
,,,377.30571, -74.94850,
,,,377.79892, -73.74850,
,,,378.29213, -74.94850,
,,,378.78534, -74.94850,
,,,379.27855, -74.94850,
,,,379.77176, -73.74850,
,,,380.26497, -74.94850,
,,,380.75818, -74.94850,
,,,381.25139, -74.94850,
,,,381.74460, -73.74850,
,,,382.23781, -74.94850,
,,,382.73102, -74.94850,
,,,383.22423, -74.94850,
,,,383.71744, -74.94850,
,,,384.21065, -74.94850,
,,,384.70386, -74.94850,
,,,385.19707, -74.94850,
,,,385.69028, -74.94850,
,,,386.18349, -74.94850,
,,,386.67670, -74.94850,
,,,387.16991, -74.94850,
,,,387.66312, -74.94850,
,,,388.15633, -74.94850,
