Práctica 2 21-03-19/set de señales/pruebas def/Borrador 7/ALL0003/F0003FFT.CSV

Record Length,1.024000e+03,,          0.00000,   4.63090,
Sample Interval,4.932134e-01,,          0.49321,   1.43090,
Trigger Point,-0.000000000000e+00,,          0.98643, -60.96910,
,,,          1.47964, -60.96910,
,,,          1.97285, -60.96910,
,,,          2.46607, -60.96910,
Source,FFT,,          2.95928, -60.96910,
Vertical Units,dB,,          3.45249, -60.96910,
Vertical Scale,1.000000e+01,,          3.94571, -60.96910,
Vertical Offset,0.000000e+00,,          4.43892, -59.76910,
Horizontal Units,Hz,,          4.93213, -59.76910,
Horizontal Scale,5.050505e+01,,          5.42535, -60.96910,
Pt Fmt,Y,,          5.91856, -60.96910,
Yzero,-2.096910e+01,,          6.41177, -60.96910,
Probe Atten,1.000000e+00,,          6.90499, -57.76910,
Model Number,TBS1052B-EDU,,          7.39820, -59.76910,
Serial Number,C015250,,          7.89141, -59.76910,
Firmware Version,FV:v4.0,,          8.38463, -59.76910,
,,,8.87784, -60.96910,
,,,9.37105, -56.96910,
,,,9.86426, -60.96910,
,,,10.35747, -60.96910,
,,,10.85068, -60.96910,
,,,11.34389, -60.96910,
,,,11.83710, -60.96910,
,,,12.33031, -59.76910,
,,,12.82352, -59.76910,
,,,13.31673, -60.96910,
,,,13.80994, -60.96910,
,,,14.30315, -60.96910,
,,,14.79636, -60.96910,
,,,15.28957, -60.96910,
,,,15.78278, -60.96910,
,,,16.27599, -60.96910,
,,,16.76920, -60.96910,
,,,17.26241, -60.96910,
,,,17.75562, -60.96910,
,,,18.24883, -59.76910,
,,,18.74204, -60.96910,
,,,19.23525, -60.96910,
,,,19.72846, -60.96910,
,,,20.22167, -60.96910,
,,,20.71488, -60.96910,
,,,21.20809, -60.96910,
,,,21.70130, -60.96910,
,,,22.19451, -60.96910,
,,,22.68772, -60.96910,
,,,23.18093, -60.96910,
,,,23.67414, -59.76910,
,,,24.16735, -59.76910,
,,,24.66056, -60.96910,
,,,25.15377, -60.96910,
,,,25.64698, -60.96910,
,,,26.14019, -60.96910,
,,,26.63340, -60.96910,
,,,27.12661, -60.96910,
,,,27.61982, -60.96910,
,,,28.11303, -60.96910,
,,,28.60624, -60.96910,
,,,29.09945, -60.96910,
,,,29.59266, -60.96910,
,,,30.08587, -60.96910,
,,,30.57908, -60.96910,
,,,31.07229, -60.96910,
,,,31.56550, -60.96910,
,,,32.05871, -60.96910,
,,,32.55192, -60.96910,
,,,33.04513, -59.76910,
,,,33.53834, -60.96910,
,,,34.03155, -60.96910,
,,,34.52476, -57.76910,
,,,35.01797, -57.76910,
,,,35.51118, -60.96910,
,,,36.00439, -60.96910,
,,,36.49760, -60.96910,
,,,36.99081, -60.96910,
,,,37.48402, -60.96910,
,,,37.97723, -60.96910,
,,,38.47044, -60.96910,
,,,38.96365, -60.96910,
,,,39.45686, -60.96910,
,,,39.95007, -60.96910,
,,,40.44328, -60.96910,
,,,40.93649, -60.96910,
,,,41.42970, -60.96910,
,,,41.92291, -60.96910,
,,,42.41612, -60.96910,
,,,42.90933, -60.96910,
,,,43.40254, -60.96910,
,,,43.89575, -60.96910,
,,,44.38896, -59.76910,
,,,44.88217, -57.76910,
,,,45.37538, -60.96910,
,,,45.86859, -60.96910,
,,,46.36180, -60.96910,
,,,46.85501, -60.96910,
,,,47.34822, -60.96910,
,,,47.84143, -60.96910,
,,,48.33464, -60.96910,
,,,48.82785, -60.96910,
,,,49.32106, -60.96910,
,,,49.81427, -60.96910,
,,,50.30748, -56.96910,
,,,50.80069, -60.96910,
,,,51.29390, -60.96910,
,,,51.78711, -60.96910,
,,,52.28032, -60.96910,
,,,52.77353, -60.96910,
,,,53.26674, -60.96910,
,,,53.75995, -57.36910,
,,,54.25316, -60.96910,
,,,54.74637, -60.96910,
,,,55.23958, -60.96910,
,,,55.73279, -60.96910,
,,,56.22600, -60.96910,
,,,56.71921, -60.96910,
,,,57.21242, -60.96910,
,,,57.70563, -60.96910,
,,,58.19884, -60.96910,
,,,58.69205, -60.96910,
,,,59.18526, -60.96910,
,,,59.67847, -60.96910,
,,,60.17168, -60.96910,
,,,60.66489, -57.76910,
,,,61.15810, -60.96910,
,,,61.65131, -60.96910,
,,,62.14452, -60.96910,
,,,62.63773, -60.96910,
,,,63.13094, -60.96910,
,,,63.62415, -60.96910,
,,,64.11736, -60.96910,
,,,64.61057, -60.96910,
,,,65.10378, -60.96910,
,,,65.59699, -60.96910,
,,,66.09020, -60.96910,
,,,66.58341, -60.96910,
,,,67.07662, -60.96910,
,,,67.56983, -59.76910,
,,,68.06304, -60.96910,
,,,68.55625, -60.96910,
,,,69.04946, -60.96910,
,,,69.54267, -60.96910,
,,,70.03588, -60.96910,
,,,70.52909, -60.96910,
,,,71.02230, -56.96910,
,,,71.51551, -56.96910,
,,,72.00872, -57.36910,
,,,72.50193, -60.96910,
,,,72.99514, -60.96910,
,,,73.48835, -60.96910,
,,,73.98156, -60.96910,
,,,74.47477, -56.96910,
,,,74.96798, -55.76910,
,,,75.46119, -60.96910,
,,,75.95440, -60.96910,
,,,76.44761, -59.76910,
,,,76.94082, -60.96910,
,,,77.43403, -60.96910,
,,,77.92724, -57.76910,
,,,78.42045, -59.76910,
,,,78.91366, -59.76910,
,,,79.40687, -60.96910,
,,,79.90008, -60.96910,
,,,80.39329, -60.96910,
,,,80.88650, -60.96910,
,,,81.37971, -60.96910,
,,,81.87292, -60.96910,
,,,82.36613, -60.96910,
,,,82.85934, -60.96910,
,,,83.35255, -60.96910,
,,,83.84576, -60.96910,
,,,84.33897, -60.96910,
,,,84.83218, -60.96910,
,,,85.32539, -60.96910,
,,,85.81860, -60.96910,
,,,86.31181, -60.96910,
,,,86.80502, -60.96910,
,,,87.29823, -60.96910,
,,,87.79144, -60.96910,
,,,88.28465, -60.96910,
,,,88.77786, -60.96910,
,,,89.27107, -60.96910,
,,,89.76428, -60.96910,
,,,90.25749, -60.96910,
,,,90.75070, -60.96910,
,,,91.24391, -57.36910,
,,,91.73712, -60.96910,
,,,92.23033, -60.96910,
,,,92.72354, -60.96910,
,,,93.21675, -60.96910,
,,,93.70996, -60.96910,
,,,94.20317, -57.76910,
,,,94.69638, -59.76910,
,,,95.18959, -60.96910,
,,,95.68280, -60.96910,
,,,96.17601, -60.96910,
,,,96.66922, -60.96910,
,,,97.16243, -60.96910,
,,,97.65564, -60.96910,
,,,98.14885, -60.96910,
,,,98.64206, -60.96910,
,,,99.13527, -60.96910,
,,,99.62848, -60.96910,
,,,100.12169, -59.76910,
,,,100.61490, -60.96910,
,,,101.10811, -60.96910,
,,,101.60132, -60.96910,
,,,102.09453, -60.96910,
,,,102.58774, -60.96910,
,,,103.08095, -60.96910,
,,,103.57416, -60.96910,
,,,104.06737, -60.96910,
,,,104.56058, -60.96910,
,,,105.05379, -59.76910,
,,,105.54700, -60.96910,
,,,106.04021, -60.96910,
,,,106.53342, -59.76910,
,,,107.02663, -60.96910,
,,,107.51984, -60.96910,
,,,108.01305, -60.96910,
,,,108.50626, -60.96910,
,,,108.99947, -60.96910,
,,,109.49268, -60.96910,
,,,109.98589, -60.96910,
,,,110.47910, -60.96910,
,,,110.97231, -60.96910,
,,,111.46552, -60.96910,
,,,111.95873, -60.96910,
,,,112.45194, -60.96910,
,,,112.94515, -60.96910,
,,,113.43836, -60.96910,
,,,113.93157, -60.96910,
,,,114.42478, -60.96910,
,,,114.91799, -60.96910,
,,,115.41120, -59.76910,
,,,115.90441, -60.96910,
,,,116.39762, -60.96910,
,,,116.89083, -60.96910,
,,,117.38404, -59.76910,
,,,117.87725, -60.96910,
,,,118.37046, -60.96910,
,,,118.86367, -60.96910,
,,,119.35688, -59.76910,
,,,119.85009, -60.96910,
,,,120.34330, -60.96910,
,,,120.83651, -60.96910,
,,,121.32972, -54.56910,
,,,121.82293, -55.76910,
,,,122.31614, -60.96910,
,,,122.80935, -60.96910,
,,,123.30256, -60.96910,
,,,123.79577, -59.76910,
,,,124.28898, -60.96910,
,,,124.78219, -60.96910,
,,,125.27540, -59.76910,
,,,125.76861, -60.96910,
,,,126.26182, -57.76910,
,,,126.75503, -59.76910,
,,,127.24824, -60.96910,
,,,127.74145, -60.96910,
,,,128.23466, -60.96910,
,,,128.72787, -60.96910,
,,,129.22108, -60.96910,
,,,129.71429, -60.96910,
,,,130.20750, -59.76910,
,,,130.70071, -60.96910,
,,,131.19392, -60.96910,
,,,131.68713, -60.96910,
,,,132.18034, -60.96910,
,,,132.67355, -60.96910,
,,,133.16676, -60.96910,
,,,133.65997, -60.96910,
,,,134.15318, -60.96910,
,,,134.64639, -60.96910,
,,,135.13960, -60.96910,
,,,135.63281, -60.96910,
,,,136.12602, -60.96910,
,,,136.61923, -60.96910,
,,,137.11244, -60.96910,
,,,137.60565, -59.76910,
,,,138.09886, -59.76910,
,,,138.59207, -60.96910,
,,,139.08528, -60.96910,
,,,139.57849, -60.96910,
,,,140.07170, -60.96910,
,,,140.56491, -60.96910,
,,,141.05812, -60.96910,
,,,141.55133, -60.96910,
,,,142.04454, -59.76910,
,,,142.53775, -59.76910,
,,,143.03096, -60.96910,
,,,143.52417, -60.96910,
,,,144.01738, -60.96910,
,,,144.51059, -60.96910,
,,,145.00380, -60.96910,
,,,145.49701, -60.96910,
,,,145.99022, -60.96910,
,,,146.48343, -60.96910,
,,,146.97664, -60.96910,
,,,147.46985, -60.96910,
,,,147.96306, -60.96910,
,,,148.45627, -60.96910,
,,,148.94948, -59.76910,
,,,149.44269, -59.76910,
,,,149.93590, -60.96910,
,,,150.42911, -60.96910,
,,,150.92232, -60.96910,
,,,151.41553, -60.96910,
,,,151.90874, -60.96910,
,,,152.40195, -60.96910,
,,,152.89516, -60.96910,
,,,153.38837, -57.76910,
,,,153.88158, -56.96910,
,,,154.37479, -60.96910,
,,,154.86800, -59.76910,
,,,155.36121, -60.96910,
,,,155.85442, -60.96910,
,,,156.34763, -54.96910,
,,,156.84084, -59.76910,
,,,157.33405, -60.96910,
,,,157.82726, -60.96910,
,,,158.32047, -59.76910,
,,,158.81368, -57.36910,
,,,159.30689, -59.76910,
,,,159.80010, -60.96910,
,,,160.29331, -60.96910,
,,,160.78652, -60.96910,
,,,161.27973, -60.96910,
,,,161.77294, -60.96910,
,,,162.26615, -60.96910,
,,,162.75936, -59.76910,
,,,163.25257, -56.96910,
,,,163.74578, -59.76910,
,,,164.23899, -60.96910,
,,,164.73220, -60.96910,
,,,165.22541, -60.96910,
,,,165.71862, -60.96910,
,,,166.21183, -60.96910,
,,,166.70504, -60.96910,
,,,167.19825, -60.96910,
,,,167.69146, -60.96910,
,,,168.18467, -60.96910,
,,,168.67788, -60.96910,
,,,169.17109, -59.76910,
,,,169.66430, -56.96910,
,,,170.15751, -60.96910,
,,,170.65072, -60.96910,
,,,171.14393, -60.96910,
,,,171.63714, -60.96910,
,,,172.13035, -60.96910,
,,,172.62356, -60.96910,
,,,173.11677, -59.76910,
,,,173.60998, -57.76910,
,,,174.10319, -59.76910,
,,,174.59640, -60.96910,
,,,175.08961, -60.96910,
,,,175.58282, -60.96910,
,,,176.07603, -60.96910,
,,,176.56924, -60.96910,
,,,177.06245, -60.96910,
,,,177.55566, -60.96910,
,,,178.04887, -60.96910,
,,,178.54208, -60.96910,
,,,179.03529, -60.96910,
,,,179.52850, -60.96910,
,,,180.02171, -57.76910,
,,,180.51492, -59.76910,
,,,181.00813, -60.96910,
,,,181.50134, -60.96910,
,,,181.99455, -60.96910,
,,,182.48776, -60.96910,
,,,182.98097, -60.96910,
,,,183.47418, -60.96910,
,,,183.96739, -60.96910,
,,,184.46060, -60.96910,
,,,184.95381, -59.76910,
,,,185.44702, -54.56910,
,,,185.94023, -55.76910,
,,,186.43344, -57.36910,
,,,186.92665, -60.96910,
,,,187.41986, -60.96910,
,,,187.91307, -60.96910,
,,,188.40628, -60.96910,
,,,188.89949, -60.96910,
,,,189.39270, -60.96910,
,,,189.88591, -60.96910,
,,,190.37912, -60.96910,
,,,190.87233, -60.96910,
,,,191.36554, -60.96910,
,,,191.85875, -60.96910,
,,,192.35196, -60.96910,
,,,192.84517, -60.96910,
,,,193.33838, -60.96910,
,,,193.83159, -60.96910,
,,,194.32480, -60.96910,
,,,194.81801, -60.96910,
,,,195.31122, -60.96910,
,,,195.80443, -56.96910,
,,,196.29764, -56.96910,
,,,196.79085, -60.96910,
,,,197.28406, -60.96910,
,,,197.77727, -59.76910,
,,,198.27048, -57.36910,
,,,198.76369, -60.96910,
,,,199.25690, -60.96910,
,,,199.75011, -60.96910,
,,,200.24332, -60.96910,
,,,200.73653, -49.76910,
,,,201.22974, -45.76910,
,,,201.72295, -53.76910,
,,,202.21616, -60.96910,
,,,202.70937, -60.96910,
,,,203.20258, -60.96910,
,,,203.69579, -60.96910,
,,,204.18900, -60.96910,
,,,204.68221, -60.96910,
,,,205.17542, -56.96910,
,,,205.66863, -60.96910,
,,,206.16184, -60.96910,
,,,206.65505, -60.96910,
,,,207.14826, -60.96910,
,,,207.64147, -60.96910,
,,,208.13468, -60.96910,
,,,208.62789, -60.96910,
,,,209.12110, -60.96910,
,,,209.61431, -54.56910,
,,,210.10752, -52.96910,
,,,210.60073, -59.76910,
,,,211.09394, -60.96910,
,,,211.58715, -60.96910,
,,,212.08036, -60.96910,
,,,212.57357, -59.76910,
,,,213.06678, -60.96910,
,,,213.55999, -60.96910,
,,,214.05320, -59.76910,
,,,214.54641, -57.36910,
,,,215.03962, -53.76910,
,,,215.53283, -43.36910,
,,,216.02604, -30.56910,
,,,216.51925,  -3.36910,
,,,217.01246,   1.43090,
,,,217.50567,  -6.56910,
,,,217.99888, -34.56910,
,,,218.49209, -46.16910,
,,,218.98530, -51.76910,
,,,219.47851, -60.96910,
,,,219.97172, -55.76910,
,,,220.46493, -60.96910,
,,,220.95814, -59.76910,
,,,221.45135, -60.96910,
,,,221.94456, -59.76910,
,,,222.43777, -55.76910,
,,,222.93098, -60.96910,
,,,223.42419, -54.56910,
,,,223.91740, -48.16910,
,,,224.41061, -52.16910,
,,,224.90382, -60.96910,
,,,225.39703, -60.96910,
,,,225.89024, -59.76910,
,,,226.38345, -60.96910,
,,,226.87666, -60.96910,
,,,227.36987, -59.76910,
,,,227.86308, -60.96910,
,,,228.35629, -57.76910,
,,,228.84950, -59.76910,
,,,229.34271, -60.96910,
,,,229.83592, -60.96910,
,,,230.32913, -60.96910,
,,,230.82234, -53.76910,
,,,231.31555, -57.76910,
,,,231.80876, -56.96910,
,,,232.30197, -49.76910,
,,,232.79518, -46.16910,
,,,233.28839, -54.56910,
,,,233.78160, -60.96910,
,,,234.27481, -60.96910,
,,,234.76802, -60.96910,
,,,235.26123, -60.96910,
,,,235.75444, -59.76910,
,,,236.24765, -60.96910,
,,,236.74086, -60.96910,
,,,237.23407, -60.96910,
,,,237.72728, -60.96910,
,,,238.22049, -60.96910,
,,,238.71370, -60.96910,
,,,239.20691, -60.96910,
,,,239.70012, -60.96910,
,,,240.19333, -60.96910,
,,,240.68654, -59.76910,
,,,241.17975, -60.96910,
,,,241.67296, -60.96910,
,,,242.16617, -60.96910,
,,,242.65938, -60.96910,
,,,243.15259, -60.96910,
,,,243.64580, -59.76910,
,,,244.13901, -56.96910,
,,,244.63222, -60.96910,
,,,245.12543, -60.96910,
,,,245.61864, -60.96910,
,,,246.11185, -57.76910,
,,,246.60506, -56.96910,
,,,247.09827, -60.96910,
,,,247.59148, -60.96910,
,,,248.08469, -60.96910,
,,,248.57790, -51.36910,
,,,249.07111, -56.96910,
,,,249.56432, -60.96910,
,,,250.05753, -60.96910,
,,,250.55074, -60.96910,
,,,251.04395, -60.96910,
,,,251.53716, -60.96910,
,,,252.03037, -60.96910,
,,,252.52358, -59.76910,
,,,253.01679, -60.96910,
,,,253.51000, -60.96910,
,,,254.00321, -60.96910,
,,,254.49642, -60.96910,
,,,254.98963, -60.96910,
,,,255.48284, -60.96910,
,,,255.97605, -60.96910,
,,,256.46926, -60.96910,
,,,256.96247, -59.76910,
,,,257.45568, -56.96910,
,,,257.94889, -59.76910,
,,,258.44210, -60.96910,
,,,258.93531, -60.96910,
,,,259.42852, -60.96910,
,,,259.92173, -60.96910,
,,,260.41494, -60.96910,
,,,260.90815, -60.96910,
,,,261.40136, -60.96910,
,,,261.89457, -60.96910,
,,,262.38778, -60.96910,
,,,262.88099, -60.96910,
,,,263.37420, -60.96910,
,,,263.86741, -59.76910,
,,,264.36062, -52.96910,
,,,264.85383, -56.96910,
,,,265.34704, -59.76910,
,,,265.84025, -60.96910,
,,,266.33346, -60.96910,
,,,266.82667, -60.96910,
,,,267.31988, -60.96910,
,,,267.81309, -60.96910,
,,,268.30630, -60.96910,
,,,268.79951, -60.96910,
,,,269.29272, -59.76910,
,,,269.78593, -60.96910,
,,,270.27914, -60.96910,
,,,270.77235, -60.96910,
,,,271.26556, -60.96910,
,,,271.75877, -60.96910,
,,,272.25198, -60.96910,
,,,272.74519, -60.96910,
,,,273.23840, -60.96910,
,,,273.73161, -60.96910,
,,,274.22482, -60.96910,
,,,274.71803, -60.96910,
,,,275.21124, -59.76910,
,,,275.70445, -60.96910,
,,,276.19766, -60.96910,
,,,276.69087, -60.96910,
,,,277.18408, -59.76910,
,,,277.67729, -60.96910,
,,,278.17050, -59.76910,
,,,278.66371, -60.96910,
,,,279.15692, -60.96910,
,,,279.65013, -60.96910,
,,,280.14334, -56.96910,
,,,280.63655, -59.76910,
,,,281.12976, -60.96910,
,,,281.62297, -60.96910,
,,,282.11618, -60.96910,
,,,282.60939, -60.96910,
,,,283.10260, -59.76910,
,,,283.59581, -60.96910,
,,,284.08902, -60.96910,
,,,284.58223, -60.96910,
,,,285.07544, -60.96910,
,,,285.56865, -60.96910,
,,,286.06186, -60.96910,
,,,286.55507, -60.96910,
,,,287.04828, -56.96910,
,,,287.54149, -56.96910,
,,,288.03470, -59.76910,
,,,288.52791, -60.96910,
,,,289.02112, -60.96910,
,,,289.51433, -60.96910,
,,,290.00754, -60.96910,
,,,290.50075, -60.96910,
,,,290.99396, -60.96910,
,,,291.48717, -60.96910,
,,,291.98038, -60.96910,
,,,292.47359, -60.96910,
,,,292.96680, -60.96910,
,,,293.46001, -60.96910,
,,,293.95322, -60.96910,
,,,294.44643, -60.96910,
,,,294.93964, -60.96910,
,,,295.43285, -60.96910,
,,,295.92606, -56.96910,
,,,296.41927, -59.76910,
,,,296.91248, -59.76910,
,,,297.40569, -56.96910,
,,,297.89890, -59.76910,
,,,298.39211, -60.96910,
,,,298.88532, -60.96910,
,,,299.37853, -60.96910,
,,,299.87174, -60.96910,
,,,300.36495, -59.76910,
,,,300.85816, -57.76910,
,,,301.35137, -56.96910,
,,,301.84458, -60.96910,
,,,302.33779, -60.96910,
,,,302.83100, -60.96910,
,,,303.32421, -60.96910,
,,,303.81742, -60.96910,
,,,304.31063, -60.96910,
,,,304.80384, -60.96910,
,,,305.29705, -60.96910,
,,,305.79026, -60.96910,
,,,306.28347, -60.96910,
,,,306.77668, -60.96910,
,,,307.26989, -60.96910,
,,,307.76310, -60.96910,
,,,308.25631, -60.96910,
,,,308.74952, -60.96910,
,,,309.24273, -60.96910,
,,,309.73594, -60.96910,
,,,310.22915, -60.96910,
,,,310.72236, -60.96910,
,,,311.21557, -60.96910,
,,,311.70878, -60.96910,
,,,312.20199, -60.96910,
,,,312.69520, -60.96910,
,,,313.18841, -60.96910,
,,,313.68162, -60.96910,
,,,314.17483, -60.96910,
,,,314.66804, -60.96910,
,,,315.16125, -60.96910,
,,,315.65446, -60.96910,
,,,316.14767, -60.96910,
,,,316.64088, -60.96910,
,,,317.13409, -60.96910,
,,,317.62730, -60.96910,
,,,318.12051, -60.96910,
,,,318.61372, -60.96910,
,,,319.10693, -60.96910,
,,,319.60014, -60.96910,
,,,320.09335, -59.76910,
,,,320.58656, -60.96910,
,,,321.07977, -60.96910,
,,,321.57298, -60.96910,
,,,322.06619, -60.96910,
,,,322.55940, -60.96910,
,,,323.05261, -60.96910,
,,,323.54582, -60.96910,
,,,324.03903, -60.96910,
,,,324.53224, -60.96910,
,,,325.02545, -60.96910,
,,,325.51866, -60.96910,
,,,326.01187, -60.96910,
,,,326.50508, -60.96910,
,,,326.99829, -60.96910,
,,,327.49150, -60.96910,
,,,327.98471, -60.96910,
,,,328.47792, -60.96910,
,,,328.97113, -60.96910,
,,,329.46434, -60.96910,
,,,329.95755, -60.96910,
,,,330.45076, -60.96910,
,,,330.94397, -57.36910,
,,,331.43718, -59.76910,
,,,331.93039, -60.96910,
,,,332.42360, -60.96910,
,,,332.91681, -60.96910,
,,,333.41002, -60.96910,
,,,333.90323, -60.96910,
,,,334.39644, -60.96910,
,,,334.88965, -60.96910,
,,,335.38286, -60.96910,
,,,335.87607, -59.76910,
,,,336.36928, -60.96910,
,,,336.86249, -60.96910,
,,,337.35570, -60.96910,
,,,337.84891, -60.96910,
,,,338.34212, -60.96910,
,,,338.83533, -60.96910,
,,,339.32854, -60.96910,
,,,339.82175, -60.96910,
,,,340.31496, -60.96910,
,,,340.80817, -60.96910,
,,,341.30138, -60.96910,
,,,341.79459, -60.96910,
,,,342.28780, -60.96910,
,,,342.78101, -60.96910,
,,,343.27422, -60.96910,
,,,343.76743, -60.96910,
,,,344.26064, -60.96910,
,,,344.75385, -60.96910,
,,,345.24706, -59.76910,
,,,345.74027, -60.96910,
,,,346.23348, -60.96910,
,,,346.72669, -59.76910,
,,,347.21990, -60.96910,
,,,347.71311, -60.96910,
,,,348.20632, -56.96910,
,,,348.69953, -60.96910,
,,,349.19274, -59.76910,
,,,349.68595, -59.76910,
,,,350.17916, -60.96910,
,,,350.67237, -60.96910,
,,,351.16558, -60.96910,
,,,351.65879, -60.96910,
,,,352.15200, -59.76910,
,,,352.64521, -59.76910,
,,,353.13842, -60.96910,
,,,353.63163, -60.96910,
,,,354.12484, -60.96910,
,,,354.61805, -60.96910,
,,,355.11126, -59.76910,
,,,355.60447, -60.96910,
,,,356.09768, -60.96910,
,,,356.59089, -60.96910,
,,,357.08410, -60.96910,
,,,357.57731, -60.96910,
,,,358.07052, -60.96910,
,,,358.56373, -57.36910,
,,,359.05694, -49.76910,
,,,359.55015, -51.76910,
,,,360.04336, -60.96910,
,,,360.53657, -60.96910,
,,,361.02978, -59.76910,
,,,361.52299, -60.96910,
,,,362.01620, -60.96910,
,,,362.50941, -60.96910,
,,,363.00262, -60.96910,
,,,363.49583, -60.96910,
,,,363.98904, -60.96910,
,,,364.48225, -60.96910,
,,,364.97546, -60.96910,
,,,365.46867, -60.96910,
,,,365.96188, -57.36910,
,,,366.45509, -59.76910,
,,,366.94830, -60.96910,
,,,367.44151, -60.96910,
,,,367.93472, -60.96910,
,,,368.42793, -60.96910,
,,,368.92114, -60.96910,
,,,369.41435, -59.76910,
,,,369.90756, -60.96910,
,,,370.40077, -59.76910,
,,,370.89398, -60.96910,
,,,371.38719, -60.96910,
,,,371.88040, -60.96910,
,,,372.37361, -60.96910,
,,,372.86682, -60.96910,
,,,373.36003, -60.96910,
,,,373.85324, -60.96910,
,,,374.34645, -60.96910,
,,,374.83966, -60.96910,
,,,375.33287, -60.96910,
,,,375.82608, -60.96910,
,,,376.31929, -60.96910,
,,,376.81250, -60.96910,
,,,377.30571, -60.96910,
,,,377.79892, -59.76910,
,,,378.29213, -59.76910,
,,,378.78534, -60.96910,
,,,379.27855, -60.96910,
,,,379.77176, -60.96910,
,,,380.26497, -60.96910,
,,,380.75818, -60.96910,
,,,381.25139, -60.96910,
,,,381.74460, -60.96910,
,,,382.23781, -60.96910,
,,,382.73102, -60.96910,
,,,383.22423, -60.96910,
,,,383.71744, -60.96910,
,,,384.21065, -60.96910,
,,,384.70386, -60.96910,
,,,385.19707, -60.96910,
,,,385.69028, -60.96910,
,,,386.18349, -60.96910,
,,,386.67670, -60.96910,
,,,387.16991, -59.76910,
,,,387.66312, -60.96910,
,,,388.15633, -60.96910,
